<?xml version="1.0"?>
<font>
  <info face="basic title font" size="48" bold="0" italic="0" charset="" unicode="1" stretchH="100" smooth="1" aa="1" padding="1,0,0,1" spacing="1,1" outline="0"/>
  <common lineHeight="48" base="45" scaleW="256" scaleH="256" pages="1" packed="0" alphaChnl="0" redChnl="4" greenChnl="4" blueChnl="4"/>
  <pages>
    <page id="0" file="bigger.png" />
  </pages>
  <chars count="101">
    <char id="0" x="253" y="0" width="1" height="2" xoffset="-1" yoffset="46" xadvance="0" page="0" chnl="15" />
    <char id="13" x="67" y="116" width="4" height="2" xoffset="-2" yoffset="46" xadvance="25" page="0" chnl="15" />
    <char id="32" x="62" y="116" width="4" height="2" xoffset="-2" yoffset="46" xadvance="25" page="0" chnl="15" />
    <char id="33" x="242" y="0" width="5" height="36" xoffset="4" yoffset="9" xadvance="13" page="0" chnl="15" />
    <char id="34" x="240" y="149" width="9" height="8" xoffset="2" yoffset="9" xadvance="15" page="0" chnl="15" />
    <char id="35" x="94" y="38" width="4" height="2" xoffset="-2" yoffset="46" xadvance="41" page="0" chnl="15" />
    <char id="36" x="89" y="38" width="4" height="2" xoffset="-2" yoffset="46" xadvance="41" page="0" chnl="15" />
    <char id="37" x="84" y="38" width="4" height="2" xoffset="-2" yoffset="46" xadvance="41" page="0" chnl="15" />
    <char id="38" x="190" y="186" width="4" height="2" xoffset="-2" yoffset="46" xadvance="41" page="0" chnl="15" />
    <char id="39" x="245" y="62" width="5" height="8" xoffset="1" yoffset="6" xadvance="8" page="0" chnl="15" />
    <char id="40" x="155" y="186" width="4" height="2" xoffset="-2" yoffset="46" xadvance="16" page="0" chnl="15" />
    <char id="41" x="250" y="126" width="4" height="2" xoffset="-2" yoffset="46" xadvance="15" page="0" chnl="15" />
    <char id="42" x="76" y="190" width="18" height="14" xoffset="-1" yoffset="9" xadvance="17" page="0" chnl="15" />
    <char id="43" x="95" y="189" width="17" height="14" xoffset="3" yoffset="18" xadvance="24" page="0" chnl="15" />
    <char id="44" x="40" y="41" width="5" height="4" xoffset="2" yoffset="43" xadvance="10" page="0" chnl="15" />
    <char id="45" x="139" y="186" width="15" height="2" xoffset="12" yoffset="24" xadvance="41" page="0" chnl="15" />
    <char id="46" x="46" y="41" width="5" height="2" xoffset="0" yoffset="43" xadvance="6" page="0" chnl="15" />
    <char id="47" x="241" y="75" width="11" height="33" xoffset="1" yoffset="10" xadvance="15" page="0" chnl="15" />
    <char id="48" x="37" y="46" width="17" height="37" xoffset="2" yoffset="8" xadvance="23" page="0" chnl="15" />
    <char id="49" x="133" y="112" width="18" height="36" xoffset="1" yoffset="9" xadvance="21" page="0" chnl="15" />
    <char id="50" x="152" y="112" width="18" height="36" xoffset="2" yoffset="9" xadvance="23" page="0" chnl="15" />
    <char id="51" x="165" y="0" width="19" height="37" xoffset="1" yoffset="8" xadvance="22" page="0" chnl="15" />
    <char id="52" x="173" y="38" width="22" height="36" xoffset="-1" yoffset="9" xadvance="21" page="0" chnl="15" />
    <char id="53" x="76" y="153" width="18" height="36" xoffset="2" yoffset="9" xadvance="23" page="0" chnl="15" />
    <char id="54" x="185" y="0" width="18" height="37" xoffset="2" yoffset="8" xadvance="23" page="0" chnl="15" />
    <char id="55" x="202" y="75" width="19" height="36" xoffset="1" yoffset="9" xadvance="20" page="0" chnl="15" />
    <char id="56" x="0" y="46" width="18" height="37" xoffset="1" yoffset="8" xadvance="20" page="0" chnl="15" />
    <char id="57" x="0" y="158" width="18" height="36" xoffset="2" yoffset="9" xadvance="23" page="0" chnl="15" />
    <char id="58" x="247" y="109" width="5" height="16" xoffset="2" yoffset="19" xadvance="9" page="0" chnl="15" />
    <char id="59" x="245" y="37" width="6" height="16" xoffset="1" yoffset="19" xadvance="9" page="0" chnl="15" />
    <char id="60" x="59" y="195" width="16" height="27" xoffset="1" yoffset="13" xadvance="20" page="0" chnl="15" />
    <char id="61" x="113" y="189" width="25" height="12" xoffset="0" yoffset="21" xadvance="26" page="0" chnl="15" />
    <char id="62" x="41" y="195" width="17" height="27" xoffset="1" yoffset="13" xadvance="20" page="0" chnl="15" />
    <char id="63" x="18" y="195" width="22" height="35" xoffset="3" yoffset="9" xadvance="27" page="0" chnl="15" />
    <char id="64" x="107" y="112" width="4" height="2" xoffset="-2" yoffset="46" xadvance="41" page="0" chnl="15" />
    <char id="65" x="0" y="121" width="18" height="36" xoffset="1" yoffset="9" xadvance="21" page="0" chnl="15" />
    <char id="66" x="19" y="121" width="18" height="36" xoffset="3" yoffset="9" xadvance="24" page="0" chnl="15" />
    <char id="67" x="223" y="0" width="18" height="37" xoffset="3" yoffset="8" xadvance="24" page="0" chnl="15" />
    <char id="68" x="186" y="149" width="17" height="36" xoffset="3" yoffset="9" xadvance="24" page="0" chnl="15" />
    <char id="69" x="132" y="149" width="17" height="36" xoffset="3" yoffset="9" xadvance="24" page="0" chnl="15" />
    <char id="70" x="150" y="149" width="17" height="36" xoffset="3" yoffset="9" xadvance="24" page="0" chnl="15" />
    <char id="71" x="55" y="41" width="17" height="37" xoffset="3" yoffset="8" xadvance="24" page="0" chnl="15" />
    <char id="72" x="182" y="75" width="19" height="36" xoffset="3" yoffset="9" xadvance="26" page="0" chnl="15" />
    <char id="73" x="240" y="38" width="4" height="36" xoffset="4" yoffset="9" xadvance="13" page="0" chnl="15" />
    <char id="74" x="171" y="112" width="18" height="36" xoffset="3" yoffset="9" xadvance="25" page="0" chnl="15" />
    <char id="75" x="21" y="84" width="20" height="36" xoffset="3" yoffset="9" xadvance="25" page="0" chnl="15" />
    <char id="76" x="168" y="149" width="17" height="36" xoffset="4" yoffset="9" xadvance="26" page="0" chnl="15" />
    <char id="77" x="149" y="38" width="23" height="36" xoffset="2" yoffset="9" xadvance="28" page="0" chnl="15" />
    <char id="78" x="162" y="75" width="19" height="36" xoffset="3" yoffset="9" xadvance="25" page="0" chnl="15" />
    <char id="79" x="84" y="0" width="20" height="37" xoffset="1" yoffset="8" xadvance="23" page="0" chnl="15" />
    <char id="80" x="57" y="121" width="18" height="36" xoffset="2" yoffset="9" xadvance="24" page="0" chnl="15" />
    <char id="81" x="40" y="0" width="21" height="40" xoffset="1" yoffset="8" xadvance="25" page="0" chnl="15" />
    <char id="82" x="142" y="75" width="19" height="36" xoffset="3" yoffset="9" xadvance="25" page="0" chnl="15" />
    <char id="83" x="145" y="0" width="19" height="37" xoffset="2" yoffset="8" xadvance="23" page="0" chnl="15" />
    <char id="84" x="218" y="38" width="21" height="36" xoffset="0" yoffset="9" xadvance="22" page="0" chnl="15" />
    <char id="85" x="190" y="112" width="18" height="36" xoffset="3" yoffset="9" xadvance="25" page="0" chnl="15" />
    <char id="86" x="62" y="79" width="19" height="36" xoffset="2" yoffset="9" xadvance="23" page="0" chnl="15" />
    <char id="87" x="73" y="41" width="25" height="36" xoffset="3" yoffset="9" xadvance="31" page="0" chnl="15" />
    <char id="88" x="38" y="121" width="18" height="36" xoffset="2" yoffset="9" xadvance="24" page="0" chnl="15" />
    <char id="89" x="209" y="112" width="18" height="36" xoffset="2" yoffset="9" xadvance="22" page="0" chnl="15" />
    <char id="90" x="114" y="112" width="18" height="36" xoffset="2" yoffset="9" xadvance="24" page="0" chnl="15" />
    <char id="91" x="195" y="186" width="4" height="2" xoffset="-2" yoffset="46" xadvance="41" page="0" chnl="15" />
    <char id="92" x="55" y="79" width="4" height="2" xoffset="-2" yoffset="46" xadvance="41" page="0" chnl="15" />
    <char id="93" x="245" y="71" width="4" height="2" xoffset="-2" yoffset="46" xadvance="41" page="0" chnl="15" />
    <char id="94" x="241" y="109" width="4" height="2" xoffset="-2" yoffset="46" xadvance="41" page="0" chnl="15" />
    <char id="95" x="102" y="112" width="4" height="2" xoffset="-2" yoffset="46" xadvance="41" page="0" chnl="15" />
    <char id="96" x="245" y="54" width="6" height="7" xoffset="2" yoffset="6" xadvance="11" page="0" chnl="15" />
    <char id="97" x="95" y="115" width="18" height="36" xoffset="1" yoffset="9" xadvance="21" page="0" chnl="15" />
    <char id="98" x="76" y="116" width="18" height="36" xoffset="3" yoffset="9" xadvance="24" page="0" chnl="15" />
    <char id="99" x="204" y="0" width="18" height="37" xoffset="3" yoffset="8" xadvance="24" page="0" chnl="15" />
    <char id="100" x="204" y="149" width="17" height="36" xoffset="3" yoffset="9" xadvance="24" page="0" chnl="15" />
    <char id="101" x="222" y="149" width="17" height="36" xoffset="3" yoffset="9" xadvance="24" page="0" chnl="15" />
    <char id="102" x="0" y="195" width="17" height="36" xoffset="3" yoffset="9" xadvance="24" page="0" chnl="15" />
    <char id="103" x="19" y="46" width="17" height="37" xoffset="3" yoffset="8" xadvance="24" page="0" chnl="15" />
    <char id="104" x="102" y="75" width="19" height="36" xoffset="3" yoffset="9" xadvance="26" page="0" chnl="15" />
    <char id="105" x="248" y="0" width="4" height="36" xoffset="4" yoffset="9" xadvance="13" page="0" chnl="15" />
    <char id="106" x="95" y="152" width="18" height="36" xoffset="3" yoffset="9" xadvance="25" page="0" chnl="15" />
    <char id="107" x="0" y="84" width="20" height="36" xoffset="3" yoffset="9" xadvance="25" page="0" chnl="15" />
    <char id="108" x="114" y="149" width="17" height="36" xoffset="4" yoffset="9" xadvance="26" page="0" chnl="15" />
    <char id="109" x="125" y="38" width="23" height="36" xoffset="2" yoffset="9" xadvance="28" page="0" chnl="15" />
    <char id="110" x="82" y="78" width="19" height="36" xoffset="3" yoffset="9" xadvance="25" page="0" chnl="15" />
    <char id="111" x="105" y="0" width="19" height="37" xoffset="1" yoffset="8" xadvance="23" page="0" chnl="15" />
    <char id="112" x="222" y="75" width="18" height="36" xoffset="2" yoffset="9" xadvance="24" page="0" chnl="15" />
    <char id="113" x="62" y="0" width="21" height="40" xoffset="1" yoffset="8" xadvance="25" page="0" chnl="15" />
    <char id="114" x="42" y="84" width="19" height="36" xoffset="3" yoffset="9" xadvance="25" page="0" chnl="15" />
    <char id="115" x="125" y="0" width="19" height="37" xoffset="2" yoffset="8" xadvance="23" page="0" chnl="15" />
    <char id="116" x="196" y="38" width="21" height="36" xoffset="0" yoffset="9" xadvance="22" page="0" chnl="15" />
    <char id="117" x="228" y="112" width="18" height="36" xoffset="3" yoffset="9" xadvance="25" page="0" chnl="15" />
    <char id="118" x="122" y="75" width="19" height="36" xoffset="2" yoffset="9" xadvance="23" page="0" chnl="15" />
    <char id="119" x="99" y="38" width="25" height="36" xoffset="3" yoffset="9" xadvance="31" page="0" chnl="15" />
    <char id="120" x="19" y="158" width="18" height="36" xoffset="2" yoffset="9" xadvance="24" page="0" chnl="15" />
    <char id="121" x="38" y="158" width="18" height="36" xoffset="2" yoffset="9" xadvance="22" page="0" chnl="15" />
    <char id="122" x="57" y="158" width="18" height="36" xoffset="2" yoffset="9" xadvance="24" page="0" chnl="15" />
    <char id="123" x="160" y="186" width="4" height="2" xoffset="-2" yoffset="46" xadvance="41" page="0" chnl="15" />
    <char id="124" x="165" y="186" width="4" height="2" xoffset="-2" yoffset="46" xadvance="41" page="0" chnl="15" />
    <char id="125" x="170" y="186" width="4" height="2" xoffset="-2" yoffset="46" xadvance="41" page="0" chnl="15" />
    <char id="126" x="175" y="186" width="4" height="2" xoffset="-2" yoffset="46" xadvance="41" page="0" chnl="15" />
    <char id="160" x="180" y="186" width="4" height="2" xoffset="-2" yoffset="46" xadvance="25" page="0" chnl="15" />
    <char id="187" x="185" y="186" width="4" height="2" xoffset="-2" yoffset="46" xadvance="21" page="0" chnl="15" />
    <char id="211" x="20" y="0" width="19" height="45" xoffset="1" yoffset="0" xadvance="23" page="0" chnl="15" />
    <char id="243" x="0" y="0" width="19" height="45" xoffset="1" yoffset="0" xadvance="23" page="0" chnl="15" />
  </chars>
  <kernings count="9">
    <kerning first="32" second="83" amount="2" />
    <kerning first="47" second="70" amount="1" />
    <kerning first="90" second="66" amount="-1" />
    <kerning first="84" second="75" amount="-1" />
    <kerning first="84" second="69" amount="-2" />
    <kerning first="80" second="87" amount="-1" />
    <kerning first="77" second="90" amount="-5" />
    <kerning first="75" second="70" amount="-1" />
    <kerning first="77" second="80" amount="-1" />
  </kernings>
</font>
